{
    "data": [
        ["人","じん"],
        ["女","おんな"],
        ["力","ちから"],
        ["口","くち"],
        ["人口","じんこう"],
        ["七","しち"],
        ["上げる","あげる"],
        ["田中","たなか"],
        ["日本","にほん"],
        ["中国","ちゅごく"],
        ["八つ","やっつ"],
        ["六","ろく"],
        ["十","じゅう"],
        ["下","した"],
        ["上","うえ"]
    ]
}


